,Ins_Code,YM,KHN,KLC,KML,KRC,KUC,Others,Actual_Sales,Predicted_Sales,Mape,Accuracy
0,1000001,202012,3.2828448579891227,32.74574743262125,0.9305487912071335,1.9082135801481104,9.542723419544497,3.0795366062999974,52.0,51.4896146878101,0.9815102157498009,99.01848978425019
1,1000001,202101,3.070105475494967,30.81815007580144,0.7799470721811499,1.9901510507181546,8.76886655912777,2.7554666390483114,48.0,48.182686872371804,0.38059765077459085,99.61940234922541
2,1000001,202102,3.6640880648773195,30.854427319780193,0.8636826925010999,2.348719217578957,8.895992270559619,2.805790218036746,26.0,49.43269978333394,90.12576839743822,9.874231602561778
3,1000011,202012,0.0,13.367082493445949,0.0,1.2508507022059274,4.164512659696822,1.781363455450266,32.0,20.563809310798963,35.73809590375324,64.26190409624675
4,1000011,202101,0.0,13.642494162017922,0.0,1.4927422990476051,3.9940968959597885,2.083698838319677,30.0,21.213032195344994,29.289892682183353,70.71010731781665
5,1000011,202102,0.0,14.09830682486837,0.0,1.7401828525380643,4.006582224751448,2.322570600726653,12.0,22.167642502884537,84.73035419070447,15.269645809295525
6,1000021,202012,7.821239326690815,94.29957618391734,2.965455240016392,4.366660522911117,27.124143758880415,7.476373262839011,142.0,144.0534482952551,1.4460903487711934,98.5539096512288
7,1000021,202101,8.206971293898551,95.98152015576721,3.0516464157331935,4.836942803733226,27.917588520980452,8.076529679434444,148.0,148.07119886954706,0.048107344288554656,99.95189265571145
8,1000021,202102,8.647788856211346,94.51377452435166,3.190821244570396,5.541158522008965,27.667973654159688,8.20111878343793,68.0,147.76263558474,117.29799350697058,-17.297993506970585
9,1000031,202012,0.0,20.29914737665475,0.0,3.1506582928937488,6.762603552849336,4.141658095232566,24.0,34.3540673176304,43.14194715679334,56.85805284320666
10,1000031,202101,0.0,17.99769479885568,0.0,2.546814970597732,6.073504888384785,3.433679823362398,26.0,30.051694481200595,15.583440312309982,84.41655968769001
11,1000031,202102,0.0,16.9596120533429,0.0,5.660136191508812,5.844121416139496,6.484519668998091,14.0,34.9483893299893,149.63135235706642,-49.63135235706642
12,1000040,202012,0.0,15.721381258595823,0.0,1.0182866466548566,4.510001022290073,1.2916176136520847,29.0,22.54128654119284,22.27142572002469,77.7285742799753
13,1000040,202101,0.0,15.995001670160946,0.0,1.3328989139978331,5.047457186477459,1.6058624984181298,26.0,23.98122026905437,7.764537426713967,92.23546257328603
14,1000040,202102,0.0,15.305094460504257,0.0,1.2860713067860203,4.619303267053629,1.366309572333143,26.0,22.576778606677053,13.166236128165181,86.83376387183482
15,1000050,202012,0.0,5.613512917460889,0.0,0.0,0.0,1.8410943022420052,6.0,7.454607219702893,24.243453661714888,75.75654633828512
16,1000050,202101,0.0,4.97469284506319,0.0,0.0,0.0,1.9158659423738449,11.0,6.890558787437035,37.358556477845134,62.641443522154866
17,1000050,202102,0.0,5.105601643881097,0.0,0.0,0.0,2.2350945441496455,5.0,7.340696188030742,46.81392376061485,53.18607623938515
18,1000070,202012,2.856564932163148,32.33068277922107,0.0,1.8522897246425711,9.410663145679576,3.0172824097518776,55.0,49.46748299145825,10.059121833712277,89.94087816628772
19,1000070,202101,2.685084654074446,32.63083745412598,0.0,1.9289536625349157,9.249701237667523,3.308747451530831,46.0,49.80332445993369,8.268096652029763,91.73190334797023
20,1000070,202102,2.730577463274588,32.62868508723095,0.0,2.2576546767900534,9.016886492570222,3.665531144709009,22.0,50.29933486457482,128.63334029352188,-28.633340293521883
21,1000080,202012,0.0,78.80442299469516,0.0,0.0,0.0,0.0,78.0,78.80442299469516,1.0313115316604602,98.96868846833954
22,1000080,202101,0.0,81.97273278138923,0.0,0.0,0.0,0.0,70.0,81.97273278138923,17.10390397341318,82.89609602658682
23,1000080,202102,0.0,82.24504604957642,0.0,0.0,0.0,0.0,48.0,82.24504604957642,71.34384593661753,28.656154063382473
24,1000090,202012,0.0,27.532010374891705,0.0,0.0,0.0,0.0,20.0,27.532010374891705,37.660051874458524,62.339948125541476
25,1000090,202101,0.0,28.134926908221992,0.0,0.0,0.0,0.0,18.0,28.134926908221992,56.305149490122176,43.694850509877824
26,1000090,202102,0.0,27.444338060733045,0.0,0.0,0.0,0.0,8.0,27.444338060733045,243.05422575916307,-143.05422575916307
27,1000110,202012,8.031736160187972,97.36987653513549,3.1181713881864717,4.082253468037298,28.53928572798074,8.18273073407296,190.0,149.32405401360091,21.40839262442057,78.59160737557943
28,1000110,202101,6.709762054956772,87.95011769553804,2.947594358101491,4.613898036180302,25.709870126791802,7.751353803517748,140.0,135.68259607508617,3.0838599463670233,96.91614005363297
29,1000110,202102,7.413783517653507,88.28111568156544,3.013891230208104,4.906509869677649,26.138848330611204,7.720633245941438,70.0,137.47478187565733,96.39254553665333,3.60745446334667
