,Ins_Code,YM,KHN,KLC,KML,KRC,KUC,Others,Year,Month,total_sales
0,1000001,201709,0.0,1.92,0.08,0.0,0.0,0.0,2017,9,2.0
1,1000001,201710,0.0,1.92,0.08,0.0,0.0,0.0,2017,10,2.0
2,1000001,201711,0.0,5.03,0.17,0.0,0.0,0.0,2017,11,5.2
3,1000001,201712,0.0,4.99,0.16,0.0,0.05,0.0,2017,12,5.2
4,1000001,201801,0.0,6.55,0.21,0.0,0.44,0.0,2018,1,7.2
5,1000001,201802,0.0,5.06,0.12,0.0,0.82,0.0,2018,2,6.0
6,1000001,201803,0.0,5.12,0.13,0.0,1.15,0.0,2018,3,6.4
7,1000001,201804,0.0,11.09,0.32,0.0,3.19,0.0,2018,4,14.6
8,1000001,201805,0.0,13.62,0.35,0.0,4.61,0.02,2018,5,18.6
9,1000001,201806,0.0,14.05,0.33,0.0,4.95,0.07,2018,6,19.4
10,1000001,201807,0.0,18.36,0.45,0.0,6.29,0.09,2018,7,25.2
11,1000001,201808,0.0,19.2,0.53,0.0,6.75,0.12,2018,8,26.6
12,1000001,201809,0.0,14.28,0.4,0.0,5.07,0.04,2018,9,19.8
13,1000001,201810,0.0,18.93,0.4,0.0,7.21,0.06,2018,10,26.6
14,1000001,201811,0.0,16.93,0.37,0.0,7.04,0.05,2018,11,24.4
15,1000001,201812,0.0,20.18,0.54,0.0,8.39,0.09,2018,12,29.2
16,1000001,201901,0.0,29.19,0.6,0.0,11.26,0.15,2019,1,41.2
17,1000001,201902,0.0,22.88,0.49,0.0,8.33,0.3,2019,2,32.0
18,1000001,201903,0.0,21.96,0.41,0.0,7.14,0.48,2019,3,30.0
19,1000001,201904,0.0,36.75,0.72,0.0,11.5,1.03,2019,4,50.0
20,1000001,201905,0.0,30.63,0.45,0.0,9.81,1.11,2019,5,42.0
21,1000001,201906,0.0,39.12,0.57,0.0,12.46,1.85,2019,6,54.0
22,1000001,201907,0.0,24.94,0.36,0.0,7.63,1.07,2019,7,34.0
23,1000001,201908,0.0,34.23,0.6,0.0,9.71,1.45,2019,8,46.0
24,1000001,201909,0.0,32.73,0.54,0.0,9.34,1.39,2019,9,44.0
25,1000001,201910,0.0,42.48,0.75,0.0,12.91,1.85,2019,10,58.0
26,1000001,201911,0.0,32.33,0.66,0.0,9.29,1.71,2019,11,44.0
27,1000001,201912,0.31,27.39,0.6,0.31,7.87,1.5,2019,12,38.0
28,1000001,202001,0.56,30.42,0.64,0.33,8.37,1.67,2020,1,42.0
29,1000001,202002,0.77,24.36,0.5,0.4,6.7,1.26,2020,2,34.0
30,1000001,202003,0.83,20.89,0.51,0.48,6.0,1.28,2020,3,30.0
31,1000001,202004,1.5,28.51,0.66,0.71,8.69,1.92,2020,4,42.0
32,1000001,202005,1.52,25.51,0.65,0.56,7.92,1.83,2020,5,38.0
33,1000001,202006,1.95,26.51,0.66,0.72,8.1,2.06,2020,6,40.0
34,1000001,202007,1.38,21.46,0.61,0.61,6.32,1.62,2020,7,32.0
35,1000001,202008,1.49,21.29,0.55,0.62,6.33,1.72,2020,8,32.0
36,1000001,202009,1.74,24.0,0.69,0.75,7.01,1.82,2020,9,36.0
37,1000001,202010,2.74,35.35,1.11,1.37,10.58,2.85,2020,10,54.0
38,1000001,202011,2.99,36.44,1.11,1.67,10.89,2.9,2020,11,56.0
39,1000011,201704,0.0,5.91,0.0,0.0,0.0,0.09,2017,4,6.0
40,1000011,201705,0.0,3.92,0.0,0.0,0.0,0.08,2017,5,4.0
41,1000011,201706,0.0,5.88,0.0,0.0,0.0,0.12,2017,6,6.0
42,1000011,201707,0.0,1.96,0.0,0.0,0.0,0.04,2017,7,2.0
43,1000011,201708,0.0,1.96,0.0,0.0,0.0,0.04,2017,8,2.0
44,1000011,201709,0.0,3.92,0.0,0.0,0.0,0.08,2017,9,4.0
45,1000011,201801,0.0,3.68,0.0,0.0,0.28,0.04,2018,1,4.0
46,1000011,201802,0.0,6.8,0.0,0.0,1.15,0.05,2018,2,8.0
47,1000011,201803,0.0,4.84,0.0,0.0,1.12,0.04,2018,3,6.0
48,1000011,201804,0.0,3.07,0.0,0.0,0.9,0.03,2018,4,4.0
49,1000011,201805,0.0,4.43,0.0,0.0,1.52,0.04,2018,5,6.0
50,1000011,201806,0.0,10.22,0.0,0.0,3.65,0.13,2018,6,14.0
51,1000011,201807,0.0,5.88,0.0,0.0,2.05,0.08,2018,7,8.0
52,1000011,201808,0.0,5.83,0.0,0.0,2.08,0.09,2018,8,8.0
53,1000011,201809,0.0,5.82,0.0,0.0,2.1,0.07,2018,9,8.0
54,1000011,201810,0.0,4.3,0.0,0.0,1.66,0.04,2018,10,6.0
55,1000011,201811,0.0,1.4,0.0,0.0,0.59,0.01,2018,11,2.0
56,1000011,201812,0.0,1.39,0.0,0.0,0.59,0.02,2018,12,2.0
57,1000011,201901,0.0,2.85,0.0,0.0,1.11,0.03,2019,1,4.0
58,1000011,201904,0.0,1.48,0.0,0.0,0.47,0.05,2019,4,2.0
59,1000011,201905,0.0,2.93,0.0,0.0,0.95,0.12,2019,5,4.0
60,1000011,201906,0.0,1.46,0.0,0.0,0.47,0.08,2019,6,2.0
61,1000011,201907,0.0,4.42,0.0,0.0,1.37,0.21,2019,7,6.0
62,1000011,201908,0.0,2.99,0.0,0.0,0.86,0.14,2019,8,4.0
63,1000011,201909,0.0,4.49,0.0,0.0,1.3,0.21,2019,9,6.0
64,1000011,201910,0.0,4.42,0.0,0.0,1.36,0.22,2019,10,6.0
65,1000011,201911,0.0,1.48,0.0,0.0,0.43,0.09,2019,11,2.0
66,1000011,201912,0.0,4.36,0.0,0.09,1.28,0.27,2019,12,6.0
67,1000011,202001,0.0,11.7,0.0,0.24,3.3,0.75,2020,1,16.0
68,1000011,202002,0.0,8.71,0.0,0.25,2.48,0.56,2020,2,12.0
69,1000011,202003,0.0,8.49,0.0,0.33,2.53,0.65,2020,3,12.0
70,1000011,202004,0.0,2.77,0.0,0.12,0.88,0.23,2020,4,4.0
71,1000011,202005,0.0,6.86,0.0,0.29,2.23,0.62,2020,5,10.0
72,1000011,202006,0.0,8.15,0.0,0.41,2.62,0.81,2020,6,12.0
73,1000011,202007,0.0,8.23,0.0,0.42,2.55,0.79,2020,7,12.0
74,1000011,202008,0.0,12.26,0.0,0.64,3.85,1.25,2020,8,18.0
75,1000011,202009,0.0,10.94,0.0,0.6,3.38,1.08,2020,9,16.0
76,1000011,202010,0.0,14.79,0.0,0.95,4.7,1.55,2020,10,22.0
77,1000011,202011,0.0,13.38,0.0,0.96,4.26,1.4,2020,11,20.0
78,1000021,201704,0.0,5.82,0.18,0.0,0.0,0.0,2017,4,6.0
79,1000021,201705,0.0,8.66,0.34,0.0,0.0,0.0,2017,5,9.0
80,1000021,201706,0.0,5.76,0.24,0.0,0.0,0.0,2017,6,6.0
81,1000021,201707,0.0,13.41,0.59,0.0,0.0,0.0,2017,7,14.0
82,1000021,201708,0.0,15.39,0.61,0.0,0.0,0.0,2017,8,16.0
83,1000021,201709,0.0,15.37,0.63,0.0,0.0,0.0,2017,9,16.0
84,1000021,201710,0.0,21.16,0.84,0.0,0.0,0.0,2017,10,22.0
85,1000021,201711,0.0,19.36,0.64,0.0,0.0,0.0,2017,11,20.0
86,1000021,201712,0.0,25.91,0.85,0.0,0.24,0.0,2017,12,27.0
87,1000021,201801,0.0,27.3,0.86,0.0,1.84,0.0,2018,1,30.0
88,1000021,201802,0.0,34.57,0.83,0.0,5.6,0.0,2018,2,41.0
89,1000021,201803,0.0,37.6,0.95,0.0,8.45,0.0,2018,3,47.0
90,1000021,201804,0.0,31.15,0.89,0.0,8.95,0.0,2018,4,41.0
91,1000021,201805,0.0,42.47,1.08,0.0,14.37,0.07,2018,5,58.0
92,1000021,201806,0.0,41.28,0.96,0.0,14.54,0.21,2018,6,57.0
93,1000021,201807,0.0,49.56,1.22,0.0,16.98,0.24,2018,7,68.0
94,1000021,201808,0.0,33.93,0.93,0.0,11.93,0.21,2018,8,47.0
95,1000021,201809,0.0,26.68,0.75,0.0,9.48,0.08,2018,9,37.0
96,1000021,201810,0.0,50.52,1.08,0.0,19.24,0.15,2018,10,71.0
97,1000021,201811,0.0,38.86,0.85,0.0,16.17,0.11,2018,11,56.0
98,1000021,201812,0.0,44.93,1.19,0.0,18.67,0.2,2018,12,65.0
99,1000021,201901,0.0,47.46,0.98,0.0,18.31,0.24,2019,1,67.0
100,1000021,201902,0.0,40.75,0.87,0.0,14.83,0.53,2019,2,57.0
101,1000021,201903,0.0,54.91,1.02,0.0,17.86,1.2,2019,3,75.0
102,1000021,201904,0.0,66.14,1.3,0.0,20.7,1.85,2019,4,90.0
103,1000021,201905,0.0,59.8,0.88,0.0,19.15,2.17,2019,5,82.0
104,1000021,201906,0.0,59.4,0.86,0.0,18.92,2.82,2019,6,82.0
105,1000021,201907,0.0,71.87,1.05,0.0,21.99,3.08,2019,7,98.0
106,1000021,201908,0.0,84.83,1.49,0.0,24.07,3.6,2019,8,114.0
107,1000021,201909,0.0,74.38,1.23,0.0,21.23,3.15,2019,9,100.0
108,1000021,201910,0.0,93.75,1.66,0.0,28.5,4.08,2019,10,128.0
109,1000021,201911,0.0,66.14,1.34,0.0,19.0,3.51,2019,11,90.0
110,1000021,201912,0.83,72.08,1.59,0.83,20.71,3.95,2019,12,100.0
111,1000021,202001,1.72,92.71,1.95,1.01,25.5,5.08,2020,1,128.0
112,1000021,202002,2.73,85.99,1.77,1.4,23.66,4.43,2020,2,120.0
113,1000021,202003,3.45,86.36,2.13,1.98,24.8,5.28,2020,3,124.0
114,1000021,202004,4.22,80.09,1.87,2.0,24.41,5.39,2020,4,118.0
115,1000021,202005,4.49,75.2,1.92,1.66,23.33,5.38,2020,5,112.0
116,1000021,202006,6.73,91.44,2.27,2.5,27.93,7.11,2020,6,138.0
117,1000021,202007,5.94,92.55,2.63,2.63,27.24,7.0,2020,7,138.0
118,1000021,202008,6.42,91.79,2.37,2.68,27.31,7.42,2020,8,138.0
119,1000021,202009,6.27,86.66,2.49,2.71,25.3,6.55,2020,9,130.0
120,1000021,202010,6.89,89.04,2.8,3.44,26.64,7.18,2020,10,136.0
121,1000021,202011,7.37,89.79,2.73,4.1,26.84,7.14,2020,11,138.0
122,1000031,201705,0.0,1.96,0.0,0.0,0.0,0.04,2017,5,2.0
123,1000031,201706,0.0,3.92,0.0,0.0,0.0,0.08,2017,6,4.0
124,1000031,201707,0.0,1.96,0.0,0.0,0.0,0.04,2017,7,2.0
125,1000031,201708,0.0,1.96,0.0,0.0,0.0,0.04,2017,8,2.0
126,1000031,201709,0.0,5.88,0.0,0.0,0.0,0.12,2017,9,6.0
127,1000031,201710,0.0,11.77,0.0,0.0,0.0,0.23,2017,10,12.0
128,1000031,201711,0.0,11.81,0.0,0.0,0.0,0.19,2017,11,12.0
129,1000031,201712,0.0,13.58,0.0,0.0,0.27,0.15,2017,12,14.0
130,1000031,201801,0.0,14.71,0.0,0.0,1.13,0.15,2018,1,16.0
131,1000031,201802,0.0,11.9,0.0,0.0,2.01,0.09,2018,2,14.0
132,1000031,201803,0.0,11.29,0.0,0.0,2.61,0.09,2018,3,14.0
133,1000031,201804,0.0,12.27,0.0,0.0,3.61,0.12,2018,4,16.0
134,1000031,201805,0.0,16.25,0.0,0.0,5.59,0.16,2018,5,22.0
135,1000031,201806,0.0,13.14,0.0,0.0,4.69,0.17,2018,6,18.0
136,1000031,201807,0.0,14.69,0.0,0.0,5.11,0.19,2018,7,20.0
137,1000031,201808,0.0,14.57,0.0,0.0,5.21,0.22,2018,8,20.0
138,1000031,201809,0.0,14.56,0.0,0.0,5.26,0.18,2018,9,20.0
139,1000031,201810,0.0,17.2,0.0,0.0,6.62,0.17,2018,10,24.0
140,1000031,201811,0.0,16.78,0.0,0.0,7.05,0.17,2018,11,24.0
141,1000031,201812,0.0,12.55,0.0,0.0,5.28,0.17,2018,12,18.0
142,1000031,201901,0.0,12.84,0.0,0.0,5.01,0.15,2019,1,18.0
143,1000031,201902,0.0,7.2,0.0,0.0,2.65,0.14,2019,2,10.0
144,1000031,201903,0.0,7.37,0.0,0.0,2.43,0.21,2019,3,10.0
145,1000031,201904,0.0,7.4,0.0,0.0,2.35,0.25,2019,4,10.0
146,1000031,201905,0.0,7.33,0.0,0.0,2.37,0.3,2019,5,10.0
147,1000031,201906,0.0,11.65,0.0,0.0,3.75,0.61,2019,6,16.0
148,1000031,201907,0.0,8.84,0.0,0.0,2.74,0.42,2019,7,12.0
149,1000031,201908,0.0,1.5,0.0,0.0,0.43,0.07,2019,8,2.0
150,1000031,201909,0.0,4.49,0.0,0.0,1.3,0.21,2019,9,6.0
151,1000031,201910,0.0,8.84,0.0,0.0,2.72,0.43,2019,10,12.0
152,1000031,201911,0.0,2.96,0.0,0.0,0.86,0.18,2019,11,4.0
153,1000031,201912,0.0,4.36,0.0,0.09,1.28,0.27,2019,12,6.0
154,1000031,202001,0.0,4.39,0.0,0.09,1.24,0.28,2020,1,6.0
155,1000031,202002,0.0,5.81,0.0,0.17,1.65,0.37,2020,2,8.0
156,1000031,202003,0.0,4.25,0.0,0.16,1.27,0.32,2020,3,6.0
157,1000031,202004,0.0,11.07,0.0,0.48,3.52,0.94,2020,4,16.0
158,1000031,202005,0.0,5.49,0.0,0.23,1.78,0.5,2020,5,8.0
159,1000031,202006,0.0,6.79,0.0,0.34,2.19,0.68,2020,6,10.0
160,1000031,202007,0.0,9.61,0.0,0.48,2.98,0.93,2020,7,14.0
161,1000031,202008,0.0,14.98,0.0,0.78,4.7,1.53,2020,8,22.0
162,1000031,202009,0.0,16.4,0.0,0.9,5.08,1.61,2020,9,24.0
163,1000031,202010,0.0,28.24,0.0,1.81,8.97,2.96,2020,10,42.0
164,1000031,202011,0.0,18.73,0.0,1.35,5.96,1.96,2020,11,28.0
165,1000040,201702,0.0,2.0,0.0,0.0,0.0,0.0,2017,2,2.0
166,1000040,201703,0.0,7.94,0.0,0.0,0.0,0.06,2017,3,8.0
167,1000040,201704,0.0,11.82,0.0,0.0,0.0,0.18,2017,4,12.0
168,1000040,201705,0.0,9.81,0.0,0.0,0.0,0.19,2017,5,10.0
169,1000040,201706,0.0,11.76,0.0,0.0,0.0,0.24,2017,6,12.0
170,1000040,201707,0.0,9.79,0.0,0.0,0.0,0.21,2017,7,10.0
171,1000040,201708,0.0,17.66,0.0,0.0,0.0,0.34,2017,8,18.0
172,1000040,201709,0.0,11.76,0.0,0.0,0.0,0.23,2017,9,12.0
173,1000040,201710,0.0,13.73,0.0,0.0,0.0,0.27,2017,10,14.0
174,1000040,201711,0.0,13.78,0.0,0.0,0.0,0.22,2017,11,14.0
175,1000040,201712,0.0,13.58,0.0,0.0,0.27,0.15,2017,12,14.0
176,1000040,201801,0.0,12.87,0.0,0.0,0.99,0.13,2018,1,14.0
177,1000040,201802,0.0,8.5,0.0,0.0,1.43,0.07,2018,2,10.0
178,1000040,201803,0.0,6.45,0.0,0.0,1.49,0.05,2018,3,8.0
179,1000040,201804,0.0,15.34,0.0,0.0,4.51,0.14,2018,4,20.0
180,1000040,201805,0.0,13.29,0.0,0.0,4.57,0.13,2018,5,18.0
181,1000040,201806,0.0,13.14,0.0,0.0,4.69,0.17,2018,6,18.0
182,1000040,201807,0.0,11.76,0.0,0.0,4.09,0.15,2018,7,16.0
183,1000040,201808,0.0,13.11,0.0,0.0,4.69,0.2,2018,8,18.0
184,1000040,201809,0.0,10.19,0.0,0.0,3.68,0.13,2018,9,14.0
185,1000040,201810,0.0,12.9,0.0,0.0,4.97,0.13,2018,10,18.0
186,1000040,201811,0.0,12.58,0.0,0.0,5.29,0.13,2018,11,18.0
187,1000040,201812,0.0,9.76,0.0,0.0,4.11,0.13,2018,12,14.0
188,1000040,201901,0.0,11.41,0.0,0.0,4.45,0.14,2019,1,16.0
189,1000040,201902,0.0,18.0,0.0,0.0,6.63,0.36,2019,2,25.0
190,1000040,201903,0.0,15.47,0.0,0.0,5.1,0.43,2019,3,21.0
191,1000040,201904,0.0,19.23,0.0,0.0,6.1,0.66,2019,4,26.0
192,1000040,201905,0.0,13.19,0.0,0.0,4.27,0.54,2019,5,18.0
193,1000040,201906,0.0,16.01,0.0,0.0,5.15,0.83,2019,6,22.0
194,1000040,201907,0.0,17.69,0.0,0.0,5.47,0.84,2019,7,24.0
195,1000040,201908,0.0,16.47,0.0,0.0,4.74,0.79,2019,8,22.0
196,1000040,201909,0.0,16.45,0.0,0.0,4.76,0.78,2019,9,22.0
197,1000040,201910,0.0,19.15,0.0,0.0,5.9,0.94,2019,10,26.0
198,1000040,201911,0.0,14.8,0.0,0.0,4.32,0.88,2019,11,20.0
199,1000040,201912,0.0,15.99,0.0,0.31,4.69,1.0,2019,12,22.0
200,1000040,202001,0.0,23.41,0.0,0.48,6.61,1.5,2020,1,32.0
201,1000040,202002,0.0,15.97,0.0,0.46,4.54,1.02,2020,2,22.0
202,1000040,202003,0.0,21.23,0.0,0.82,6.34,1.61,2020,3,30.0
203,1000040,202004,0.0,20.75,0.0,0.9,6.59,1.76,2020,4,30.0
204,1000040,202005,0.0,15.09,0.0,0.64,4.9,1.37,2020,5,22.0
205,1000040,202006,0.0,19.01,0.0,0.96,6.12,1.9,2020,6,28.0
206,1000040,202007,0.0,21.96,0.0,1.11,6.81,2.12,2020,7,32.0
207,1000040,202008,0.0,14.98,0.0,0.78,4.7,1.53,2020,8,22.0
208,1000040,202009,0.0,15.04,0.0,0.83,4.65,1.48,2020,9,22.0
209,1000040,202010,0.0,17.48,0.0,1.12,5.56,1.84,2020,10,26.0
210,1000040,202011,0.0,14.05,0.0,1.01,4.47,1.47,2020,11,21.0
211,1000050,201705,0.0,1.96,0.0,0.0,0.0,0.04,2017,5,2.0
212,1000050,201706,0.0,7.84,0.0,0.0,0.0,0.16,2017,6,8.0
213,1000050,201707,0.0,1.96,0.0,0.0,0.0,0.04,2017,7,2.0
214,1000050,201708,0.0,5.89,0.0,0.0,0.0,0.11,2017,8,6.0
215,1000050,201709,0.0,5.88,0.0,0.0,0.0,0.12,2017,9,6.0
216,1000050,201710,0.0,5.89,0.0,0.0,0.0,0.11,2017,10,6.0
217,1000050,201711,0.0,11.81,0.0,0.0,0.0,0.19,2017,11,12.0
218,1000050,201712,0.0,5.88,0.0,0.0,0.0,0.12,2017,12,6.0
219,1000050,201801,0.0,5.73,0.0,0.0,0.0,0.27,2018,1,6.0
220,1000050,201802,0.0,1.84,0.0,0.0,0.0,0.16,2018,2,2.0
221,1000050,201803,0.0,1.8,0.0,0.0,0.0,0.2,2018,3,2.0
222,1000050,201804,0.0,1.76,0.0,0.0,0.0,0.24,2018,4,2.0
223,1000050,201809,0.0,1.72,0.0,0.0,0.0,0.28,2018,9,2.0
224,1000050,201810,0.0,3.42,0.0,0.0,0.0,0.58,2018,10,4.0
225,1000050,201811,0.0,1.69,0.0,0.0,0.0,0.31,2018,11,2.0
226,1000050,201812,0.0,3.38,0.0,0.0,0.0,0.62,2018,12,4.0
227,1000050,201901,0.0,3.41,0.0,0.0,0.0,0.59,2019,1,4.0
228,1000050,201902,0.0,5.12,0.0,0.0,0.0,0.88,2019,2,6.0
229,1000050,201903,0.0,6.86,0.0,0.0,0.0,1.14,2019,3,8.0
230,1000050,201904,0.0,6.86,0.0,0.0,0.0,1.14,2019,4,8.0
231,1000050,201905,0.0,1.7,0.0,0.0,0.0,0.3,2019,5,2.0
232,1000050,201906,0.0,1.69,0.0,0.0,0.0,0.31,2019,6,2.0
233,1000050,201907,0.0,5.11,0.0,0.0,0.0,0.89,2019,7,6.0
234,1000050,201908,0.0,5.14,0.0,0.0,0.0,0.86,2019,8,6.0
235,1000050,201909,0.0,3.42,0.0,0.0,0.0,0.58,2019,9,4.0
236,1000050,201910,0.0,5.1,0.0,0.0,0.0,0.9,2019,10,6.0
237,1000050,201911,0.0,1.7,0.0,0.0,0.0,0.3,2019,11,2.0
238,1000050,201912,0.0,3.36,0.0,0.0,0.0,0.64,2019,12,4.0
239,1000050,202001,0.0,5.05,0.0,0.0,0.0,0.95,2020,1,6.0
240,1000050,202002,0.0,3.36,0.0,0.0,0.0,0.64,2020,2,4.0
241,1000050,202003,0.0,4.96,0.0,0.0,0.0,1.04,2020,3,6.0
242,1000050,202004,0.0,3.27,0.0,0.0,0.0,0.73,2020,4,4.0
243,1000050,202005,0.0,8.12,0.0,0.0,0.0,1.88,2020,5,10.0
244,1000050,202006,0.0,6.44,0.0,0.0,0.0,1.56,2020,6,8.0
245,1000050,202007,0.0,3.24,0.0,0.0,0.0,0.76,2020,7,4.0
246,1000050,202008,0.0,6.45,0.0,0.0,0.0,1.55,2020,8,8.0
247,1000050,202009,0.0,8.08,0.0,0.0,0.0,1.92,2020,9,10.0
248,1000050,202010,0.0,6.41,0.0,0.0,0.0,1.59,2020,10,8.0
249,1000050,202011,0.0,7.99,0.0,0.0,0.0,2.01,2020,11,10.0
250,1000070,201703,0.0,7.94,0.0,0.0,0.0,0.06,2017,3,8.0
251,1000070,201704,0.0,9.85,0.0,0.0,0.0,0.15,2017,4,10.0
252,1000070,201705,0.0,11.77,0.0,0.0,0.0,0.23,2017,5,12.0
253,1000070,201706,0.0,14.7,0.0,0.0,0.0,0.3,2017,6,15.0
254,1000070,201707,0.0,3.92,0.0,0.0,0.0,0.08,2017,7,4.0
255,1000070,201708,0.0,7.85,0.0,0.0,0.0,0.15,2017,8,8.0
256,1000070,201709,0.0,8.82,0.0,0.0,0.0,0.18,2017,9,9.0
257,1000070,201710,0.0,11.77,0.0,0.0,0.0,0.23,2017,10,12.0
258,1000070,201711,0.0,11.81,0.0,0.0,0.0,0.19,2017,11,12.0
259,1000070,201712,0.0,20.37,0.0,0.0,0.41,0.22,2017,12,21.0
260,1000070,201801,0.0,12.87,0.0,0.0,0.99,0.13,2018,1,14.0
261,1000070,201802,0.0,14.45,0.0,0.0,2.44,0.11,2018,2,17.0
262,1000070,201803,0.0,12.91,0.0,0.0,2.98,0.11,2018,3,16.0
263,1000070,201804,0.0,10.74,0.0,0.0,3.16,0.1,2018,4,14.0
264,1000070,201805,0.0,13.29,0.0,0.0,4.57,0.13,2018,5,18.0
265,1000070,201806,0.0,18.98,0.0,0.0,6.78,0.24,2018,6,26.0
266,1000070,201807,0.0,19.1,0.0,0.0,6.65,0.25,2018,7,26.0
267,1000070,201808,0.0,16.03,0.0,0.0,5.73,0.24,2018,8,22.0
268,1000070,201809,0.0,11.65,0.0,0.0,4.21,0.14,2018,9,16.0
269,1000070,201810,0.0,15.77,0.0,0.0,6.07,0.16,2018,10,22.0
270,1000070,201811,0.0,12.58,0.0,0.0,5.29,0.13,2018,11,18.0
271,1000070,201812,0.0,6.97,0.0,0.0,2.93,0.09,2018,12,10.0
272,1000070,201901,0.0,17.12,0.0,0.0,6.68,0.2,2019,1,24.0
273,1000070,201902,0.0,10.08,0.0,0.0,3.71,0.2,2019,2,14.0
274,1000070,201903,0.0,11.79,0.0,0.0,3.88,0.33,2019,3,16.0
275,1000070,201904,0.0,17.75,0.0,0.0,5.64,0.61,2019,4,24.0
276,1000070,201905,0.0,16.12,0.0,0.0,5.22,0.66,2019,5,22.0
277,1000070,201906,0.0,11.65,0.0,0.0,3.75,0.61,2019,6,16.0
278,1000070,201907,0.0,13.27,0.0,0.0,4.1,0.63,2019,7,18.0
279,1000070,201908,0.0,13.47,0.0,0.0,3.88,0.65,2019,8,18.0
280,1000070,201909,0.0,14.96,0.0,0.0,4.33,0.71,2019,9,20.0
281,1000070,201910,0.0,20.63,0.0,0.0,6.35,1.01,2019,10,28.0
282,1000070,201911,0.0,19.24,0.0,0.0,5.62,1.14,2019,11,26.0
283,1000070,201912,0.27,17.38,0.0,0.27,5.05,1.02,2019,12,24.0
284,1000070,202001,0.51,22.55,0.0,0.34,6.27,1.33,2020,1,31.0
285,1000070,202002,0.77,21.59,0.0,0.44,6.0,1.2,2020,2,30.0
286,1000070,202003,0.97,21.7,0.0,0.6,6.31,1.43,2020,3,31.0
287,1000070,202004,1.32,23.19,0.0,0.68,7.14,1.66,2020,4,34.0
288,1000070,202005,1.57,24.29,0.0,0.66,7.62,1.85,2020,5,36.0
289,1000070,202006,2.71,34.63,0.0,1.11,10.7,2.85,2020,6,52.0
290,1000070,202007,2.16,31.03,0.0,1.05,9.25,2.51,2020,7,46.0
291,1000070,202008,2.8,37.44,0.0,1.28,11.27,3.2,2020,8,56.0
292,1000070,202009,2.5,32.18,0.0,1.18,9.53,2.6,2020,9,48.0
293,1000070,202010,2.85,34.26,0.0,1.53,10.4,2.96,2020,10,52.0
294,1000070,202011,2.7,30.77,0.0,1.58,9.33,2.62,2020,11,47.0
295,1000080,201704,0.0,4.0,0.0,0.0,0.0,0.0,2017,4,4.0
296,1000080,201705,0.0,10.0,0.0,0.0,0.0,0.0,2017,5,10.0
297,1000080,201706,0.0,8.0,0.0,0.0,0.0,0.0,2017,6,8.0
298,1000080,201707,0.0,6.0,0.0,0.0,0.0,0.0,2017,7,6.0
299,1000080,201708,0.0,8.0,0.0,0.0,0.0,0.0,2017,8,8.0
300,1000080,201709,0.0,4.0,0.0,0.0,0.0,0.0,2017,9,4.0
301,1000080,201710,0.0,14.0,0.0,0.0,0.0,0.0,2017,10,14.0
302,1000080,201711,0.0,8.0,0.0,0.0,0.0,0.0,2017,11,8.0
303,1000080,201712,0.0,12.0,0.0,0.0,0.0,0.0,2017,12,12.0
304,1000080,201801,0.0,10.0,0.0,0.0,0.0,0.0,2018,1,10.0
305,1000080,201802,0.0,14.0,0.0,0.0,0.0,0.0,2018,2,14.0
306,1000080,201803,0.0,14.0,0.0,0.0,0.0,0.0,2018,3,14.0
307,1000080,201804,0.0,14.0,0.0,0.0,0.0,0.0,2018,4,14.0
308,1000080,201805,0.0,22.0,0.0,0.0,0.0,0.0,2018,5,22.0
309,1000080,201806,0.0,18.0,0.0,0.0,0.0,0.0,2018,6,18.0
310,1000080,201807,0.0,22.0,0.0,0.0,0.0,0.0,2018,7,22.0
311,1000080,201808,0.0,20.0,0.0,0.0,0.0,0.0,2018,8,20.0
312,1000080,201809,0.0,22.0,0.0,0.0,0.0,0.0,2018,9,22.0
313,1000080,201810,0.0,24.0,0.0,0.0,0.0,0.0,2018,10,24.0
314,1000080,201811,0.0,26.0,0.0,0.0,0.0,0.0,2018,11,26.0
315,1000080,201812,0.0,22.0,0.0,0.0,0.0,0.0,2018,12,22.0
316,1000080,201901,0.0,18.0,0.0,0.0,0.0,0.0,2019,1,18.0
317,1000080,201902,0.0,16.0,0.0,0.0,0.0,0.0,2019,2,16.0
318,1000080,201903,0.0,26.0,0.0,0.0,0.0,0.0,2019,3,26.0
319,1000080,201904,0.0,26.0,0.0,0.0,0.0,0.0,2019,4,26.0
320,1000080,201905,0.0,38.0,0.0,0.0,0.0,0.0,2019,5,38.0
321,1000080,201906,0.0,32.0,0.0,0.0,0.0,0.0,2019,6,32.0
322,1000080,201907,0.0,44.0,0.0,0.0,0.0,0.0,2019,7,44.0
323,1000080,201908,0.0,44.0,0.0,0.0,0.0,0.0,2019,8,44.0
324,1000080,201909,0.0,54.0,0.0,0.0,0.0,0.0,2019,9,54.0
325,1000080,201910,0.0,62.0,0.0,0.0,0.0,0.0,2019,10,62.0
326,1000080,201911,0.0,56.0,0.0,0.0,0.0,0.0,2019,11,56.0
327,1000080,201912,0.0,58.0,0.0,0.0,0.0,0.0,2019,12,58.0
328,1000080,202001,0.0,66.0,0.0,0.0,0.0,0.0,2020,1,66.0
329,1000080,202002,0.0,58.0,0.0,0.0,0.0,0.0,2020,2,58.0
330,1000080,202003,0.0,64.0,0.0,0.0,0.0,0.0,2020,3,64.0
331,1000080,202004,0.0,66.0,0.0,0.0,0.0,0.0,2020,4,66.0
332,1000080,202005,0.0,46.0,0.0,0.0,0.0,0.0,2020,5,46.0
333,1000080,202006,0.0,62.0,0.0,0.0,0.0,0.0,2020,6,62.0
334,1000080,202007,0.0,48.0,0.0,0.0,0.0,0.0,2020,7,48.0
335,1000080,202008,0.0,58.0,0.0,0.0,0.0,0.0,2020,8,58.0
336,1000080,202009,0.0,48.0,0.0,0.0,0.0,0.0,2020,9,48.0
337,1000080,202010,0.0,72.0,0.0,0.0,0.0,0.0,2020,10,72.0
338,1000080,202011,0.0,74.0,0.0,0.0,0.0,0.0,2020,11,74.0
339,1000090,201704,0.0,6.0,0.0,0.0,0.0,0.0,2017,4,6.0
340,1000090,201705,0.0,4.0,0.0,0.0,0.0,0.0,2017,5,4.0
341,1000090,201706,0.0,4.0,0.0,0.0,0.0,0.0,2017,6,4.0
342,1000090,201707,0.0,4.0,0.0,0.0,0.0,0.0,2017,7,4.0
343,1000090,201708,0.0,4.0,0.0,0.0,0.0,0.0,2017,8,4.0
344,1000090,201709,0.0,10.0,0.0,0.0,0.0,0.0,2017,9,10.0
345,1000090,201710,0.0,4.0,0.0,0.0,0.0,0.0,2017,10,4.0
346,1000090,201711,0.0,4.0,0.0,0.0,0.0,0.0,2017,11,4.0
347,1000090,201712,0.0,4.0,0.0,0.0,0.0,0.0,2017,12,4.0
348,1000090,201801,0.0,2.0,0.0,0.0,0.0,0.0,2018,1,2.0
349,1000090,201802,0.0,2.0,0.0,0.0,0.0,0.0,2018,2,2.0
350,1000090,201803,0.0,4.0,0.0,0.0,0.0,0.0,2018,3,4.0
351,1000090,201804,0.0,8.0,0.0,0.0,0.0,0.0,2018,4,8.0
352,1000090,201805,0.0,12.0,0.0,0.0,0.0,0.0,2018,5,12.0
353,1000090,201806,0.0,10.0,0.0,0.0,0.0,0.0,2018,6,10.0
354,1000090,201807,0.0,12.0,0.0,0.0,0.0,0.0,2018,7,12.0
355,1000090,201808,0.0,16.0,0.0,0.0,0.0,0.0,2018,8,16.0
356,1000090,201809,0.0,8.0,0.0,0.0,0.0,0.0,2018,9,8.0
357,1000090,201810,0.0,14.0,0.0,0.0,0.0,0.0,2018,10,14.0
358,1000090,201811,0.0,8.0,0.0,0.0,0.0,0.0,2018,11,8.0
359,1000090,201812,0.0,14.0,0.0,0.0,0.0,0.0,2018,12,14.0
360,1000090,201901,0.0,12.0,0.0,0.0,0.0,0.0,2019,1,12.0
361,1000090,201902,0.0,14.0,0.0,0.0,0.0,0.0,2019,2,14.0
362,1000090,201903,0.0,12.0,0.0,0.0,0.0,0.0,2019,3,12.0
363,1000090,201904,0.0,10.0,0.0,0.0,0.0,0.0,2019,4,10.0
364,1000090,201905,0.0,6.0,0.0,0.0,0.0,0.0,2019,5,6.0
365,1000090,201908,0.0,8.0,0.0,0.0,0.0,0.0,2019,8,8.0
366,1000090,201909,0.0,18.0,0.0,0.0,0.0,0.0,2019,9,18.0
367,1000090,201910,0.0,16.0,0.0,0.0,0.0,0.0,2019,10,16.0
368,1000090,201911,0.0,16.0,0.0,0.0,0.0,0.0,2019,11,16.0
369,1000090,201912,0.0,14.0,0.0,0.0,0.0,0.0,2019,12,14.0
370,1000090,202001,0.0,20.0,0.0,0.0,0.0,0.0,2020,1,20.0
371,1000090,202002,0.0,18.0,0.0,0.0,0.0,0.0,2020,2,18.0
372,1000090,202003,0.0,26.0,0.0,0.0,0.0,0.0,2020,3,26.0
373,1000090,202004,0.0,32.0,0.0,0.0,0.0,0.0,2020,4,32.0
374,1000090,202005,0.0,18.0,0.0,0.0,0.0,0.0,2020,5,18.0
375,1000090,202006,0.0,24.0,0.0,0.0,0.0,0.0,2020,6,24.0
376,1000090,202007,0.0,26.0,0.0,0.0,0.0,0.0,2020,7,26.0
377,1000090,202008,0.0,22.0,0.0,0.0,0.0,0.0,2020,8,22.0
378,1000090,202009,0.0,26.0,0.0,0.0,0.0,0.0,2020,9,26.0
379,1000090,202010,0.0,32.0,0.0,0.0,0.0,0.0,2020,10,32.0
380,1000090,202011,0.0,24.0,0.0,0.0,0.0,0.0,2020,11,24.0
381,1000110,201703,0.0,10.85,0.15,0.0,0.0,0.0,2017,3,11.0
382,1000110,201704,0.0,10.28,0.32,0.0,0.0,0.0,2017,4,10.6
383,1000110,201705,0.0,15.0,0.59,0.0,0.0,0.0,2017,5,15.6
384,1000110,201706,0.0,15.36,0.63,0.0,0.0,0.0,2017,6,16.0
385,1000110,201707,0.0,20.11,0.88,0.0,0.0,0.0,2017,7,21.0
386,1000110,201708,0.0,26.93,1.07,0.0,0.0,0.0,2017,8,28.0
387,1000110,201709,0.0,29.79,1.21,0.0,0.0,0.0,2017,9,31.0
388,1000110,201710,0.0,19.24,0.76,0.0,0.0,0.0,2017,10,20.0
389,1000110,201711,0.0,31.95,1.05,0.0,0.0,0.0,2017,11,33.0
390,1000110,201712,0.0,44.14,1.45,0.0,0.41,0.0,2017,12,46.0
391,1000110,201801,0.0,24.57,0.77,0.0,1.65,0.0,2018,1,27.0
392,1000110,201802,0.0,56.49,1.35,0.0,9.15,0.0,2018,2,67.0
393,1000110,201803,0.0,30.4,0.76,0.0,6.83,0.0,2018,3,38.0
394,1000110,201804,0.0,45.59,1.31,0.0,13.09,0.0,2018,4,60.0
395,1000110,201805,0.0,38.08,0.97,0.0,12.89,0.06,2018,5,52.0
396,1000110,201806,0.0,36.94,0.86,0.0,13.01,0.18,2018,6,51.0
397,1000110,201807,0.0,38.62,0.95,0.0,13.23,0.19,2018,7,53.0
398,1000110,201808,0.0,36.09,0.99,0.0,12.69,0.22,2018,8,50.0
399,1000110,201809,0.0,32.45,0.92,0.0,11.53,0.1,2018,9,45.0
400,1000110,201810,0.0,57.64,1.23,0.0,21.94,0.17,2018,10,81.0
401,1000110,201811,0.0,27.76,0.61,0.0,11.55,0.08,2018,11,40.0
402,1000110,201812,0.0,62.21,1.65,0.0,25.86,0.27,2018,12,90.0
403,1000110,201901,0.0,42.5,0.88,0.0,16.4,0.22,2019,1,60.0
404,1000110,201902,0.0,53.62,1.15,0.0,19.52,0.7,2019,2,75.0
405,1000110,201903,0.0,43.93,0.82,0.0,14.29,0.96,2019,3,60.0
406,1000110,201904,0.0,77.31,1.52,0.0,24.19,2.16,2019,4,105.2
407,1000110,201905,0.0,55.28,0.81,0.0,17.7,2.0,2019,5,75.8
408,1000110,201906,0.0,47.08,0.68,0.0,14.99,2.23,2019,6,65.0
409,1000110,201907,0.0,44.0,0.64,0.0,13.46,1.89,2019,7,60.0
410,1000110,201908,0.0,74.41,1.3,0.0,21.11,3.16,2019,8,100.0
411,1000110,201909,0.0,126.45,2.09,0.0,36.09,5.35,2019,9,170.0
412,1000110,201910,0.0,14.65,0.26,0.0,4.45,0.64,2019,10,20.0
413,1000110,201911,0.0,73.49,1.49,0.0,21.12,3.9,2019,11,100.0
414,1000110,201912,0.62,54.06,1.19,0.62,15.53,2.96,2019,12,75.0
415,1000110,202001,0.79,42.73,0.9,0.47,11.76,2.34,2020,1,59.0
416,1000110,202002,2.96,93.15,1.92,1.52,25.63,4.8,2020,2,130.0
417,1000110,202003,2.22,55.71,1.37,1.28,16.0,3.41,2020,3,80.0
418,1000110,202004,5.72,108.6,2.53,2.72,33.1,7.31,2020,4,160.0
419,1000110,202005,4.41,73.86,1.89,1.64,22.92,5.29,2020,5,110.0
420,1000110,202006,5.86,79.52,1.97,2.17,24.29,6.19,2020,6,120.0
421,1000110,202007,6.03,93.89,2.67,2.67,27.63,7.1,2020,7,140.0
422,1000110,202008,6.05,86.47,2.23,2.52,25.72,6.99,2020,8,130.0
423,1000110,202009,5.79,80.0,2.3,2.5,23.35,6.05,2020,9,120.0
424,1000110,202010,8.11,104.75,3.29,4.05,31.34,8.45,2020,10,160.0
425,1000110,202011,5.88,71.57,2.18,3.27,21.39,5.7,2020,11,110.0
