Ins_Code,YM,KHN,KLC,KML,KRC,KUC,Others,Year,Month,total_sales
1000001,201709,0.0,0.11,1.89,0.0,0.0,0.0,2017,9,2.0
1000001,201710,0.0,0.07,0.07,0.0,0.0,1.86,2017,10,2.0
1000001,201711,0.0,2.13,0.95,0.0,0.0,2.13,2017,11,5.2
1000001,201712,0.0,0.5,2.5,0.0,0.7,1.5,2017,12,5.2
1000001,201801,0.0,5.3,1.3,0.0,0.3,0.3,2018,1,7.2
1000001,201802,0.0,2.68,0.68,0.0,0.78,1.86,2018,2,6.0
1000001,201803,0.0,1.11,1.09,0.0,3.09,1.09,2018,3,6.4
1000001,201804,0.0,2.87,0.93,0.0,0.93,9.87,2018,4,14.6
1000001,201805,0.0,3.73,8.73,0.0,3.46,2.69,2018,5,18.6
1000001,201806,0.0,5.63,1.63,0.0,2.49,9.63,2018,6,19.4
1000001,201807,0.0,11.02,6.02,0.0,0.15,8.02,2018,7,25.2
1000001,201808,0.0,8.15,7.15,0.0,4.15,7.15,2018,8,26.6
1000001,201809,0.0,4.58,0.07,0.0,5.58,9.58,2018,9,19.8
1000001,201810,0.0,10.46,8.46,0.0,7.46,0.23,2018,10,26.6
1000001,201811,0.0,12.08,5.08,0.0,7.08,0.14,2018,11,24.4
1000001,201812,0.0,14.04,4.04,0.0,0.09,11.04,2018,12,29.2
1000001,201901,0.0,16.88,0.21,0.0,0.22,23.88,2019,1,41.2
1000001,201902,0.0,5.03,20.03,0.0,5.03,1.9,2019,2,32.0
1000001,201903,0.0,0.28,14.57,0.0,7.57,7.57,2019,3,30.0
1000001,201904,0.0,14.25,3.25,0.0,21.25,11.25,2019,4,50.0
1000001,201905,0.0,1.54,13.54,0.0,26.54,0.37,2019,5,42.0
1000001,201906,0.0,22.66,0.0,0.0,26.66,4.66,2019,6,54.0
1000001,201907,0.0,18.5,0.0,0.0,0.0,15.5,2019,7,34.0
1000001,201908,0.0,17.5,4.5,0.0,16.5,7.5,2019,8,46.0
1000001,201909,0.0,4.75,13.75,0.0,8.75,16.75,2019,9,44.0
1000001,201910,0.0,15.5,10.5,0.0,26.5,5.5,2019,10,58.0
1000001,201911,0.0,0.18,23.39,0.0,0.04,20.39,2019,11,44.0
1000001,201912,0.0,0.0,20.0,18.0,0.0,0.0,2019,12,38.0
1000001,202001,0.72,1.68,0.68,24.68,0.56,13.68,2020,1,42.0
1000001,202002,12.18,7.18,5.18,1.18,0.09,8.18,2020,2,34.0
1000001,202003,8.0,0.0,0.0,0.0,0.0,22.0,2020,3,30.0
1000001,202004,0.0,18.67,0.0,17.67,0.0,5.67,2020,4,42.0
1000001,202005,0.0,15.5,4.5,0.0,14.5,3.5,2020,5,38.0
1000001,202006,4.18,9.18,12.18,0.18,14.18,0.12,2020,6,40.0
1000001,202007,0.11,17.62,1.62,12.62,0.01,0.0,2020,7,32.0
1000001,202008,0.0,14.49,0.01,0.01,0.0,17.49,2020,8,32.0
1000001,202009,9.4,3.4,8.4,0.0,10.4,4.4,2020,9,36.0
1000001,202010,3.0,11.0,0.0,0.0,19.0,21.0,2020,10,54.0
1000001,202011,11.75,22.75,7.75,13.75,0.0,0.0,2020,11,56.0
1000001,202012,4.0,38.0,0.0,0.0,10.0,0.0,2020,12,52.0
1000001,202101,5.0,0.0,5.0,5.0,0.0,33.0,2021,1,48.0
1000001,202102,0.01,8.27,0.27,3.27,13.27,0.89,2021,2,26.0
1000011,201704,0.0,3.37,0.0,0.0,0.0,2.63,2017,4,6.0
1000011,201705,0.0,1.41,0.0,0.0,0.0,2.59,2017,5,4.0
1000011,201706,0.0,1.5,0.0,0.0,0.0,4.5,2017,6,6.0
1000011,201707,0.0,0.51,0.0,0.0,0.0,1.49,2017,7,2.0
1000011,201708,0.0,0.71,0.0,0.0,0.0,1.29,2017,8,2.0
1000011,201709,0.0,2.79,0.0,0.0,0.0,1.21,2017,9,4.0
1000011,201801,0.0,0.4,0.0,0.0,2.3,1.3,2018,1,4.0
1000011,201802,0.0,2.42,0.0,0.0,2.16,3.42,2018,2,8.0
1000011,201803,0.0,2.67,0.0,0.0,1.67,1.67,2018,3,6.0
1000011,201804,0.0,1.0,0.0,0.0,1.0,2.0,2018,4,4.0
1000011,201805,0.0,3.67,0.0,0.0,0.67,1.67,2018,5,6.0
1000011,201806,0.0,4.0,0.0,0.0,9.0,1.0,2018,6,14.0
1000011,201807,0.0,1.45,0.0,0.0,4.27,2.27,2018,7,8.0
1000011,201808,0.0,1.33,0.0,0.0,5.33,1.33,2018,8,8.0
1000011,201809,0.0,1.33,0.0,0.0,1.33,5.33,2018,9,8.0
1000011,201810,0.0,2.99,0.0,0.0,2.99,0.03,2018,10,6.0
1000011,201811,0.0,0.94,0.0,0.0,0.94,0.11,2018,11,2.0
1000011,201812,0.0,1.33,0.0,0.0,0.33,0.33,2018,12,2.0
1000011,201901,0.0,1.33,0.0,0.0,1.33,1.33,2019,1,4.0
1000011,201904,0.0,0.0,0.0,0.0,1.99,0.0,2019,4,2.0
1000011,201905,0.0,0.67,0.0,0.0,0.67,2.67,2019,5,4.0
1000011,201906,0.0,0.99,0.0,0.0,0.02,0.99,2019,6,2.0
1000011,201907,0.0,2.55,0.0,0.0,0.89,2.55,2019,7,6.0
1000011,201908,0.0,0.67,0.0,0.0,0.67,2.67,2019,8,4.0
1000011,201909,0.0,3.33,0.0,0.0,2.33,0.33,2019,9,6.0
1000011,201910,0.0,3.33,0.0,0.0,2.33,0.33,2019,10,6.0
1000011,201911,0.0,0.99,0.0,0.0,0.99,0.02,2019,11,2.0
1000011,201912,0.0,0.75,0.0,0.75,3.75,0.75,2019,12,6.0
1000011,202001,0.0,5.31,0.0,2.31,0.08,8.31,2020,1,16.0
1000011,202002,0.0,4.31,0.0,4.31,3.31,0.08,2020,2,12.0
1000011,202003,0.0,3.04,0.0,4.04,0.87,4.04,2020,3,12.0
1000011,202004,0.0,0.66,0.0,0.66,0.02,2.66,2020,4,4.0
1000011,202005,0.0,4.93,0.0,0.07,4.93,0.06,2020,5,10.0
1000011,202006,0.0,8.66,0.0,2.66,0.01,0.66,2020,6,12.0
1000011,202007,0.0,0.06,0.0,0.06,6.44,5.44,2020,7,12.0
1000011,202008,0.0,3.31,0.0,9.31,5.31,0.07,2020,8,18.0
1000011,202009,0.0,10.65,0.0,0.63,4.65,0.07,2020,9,16.0
1000011,202010,0.0,4.25,0.0,10.25,4.25,3.25,2020,10,22.0
1000011,202011,0.0,14.08,0.0,0.92,4.08,0.92,2020,11,20.0
1000011,202012,0.0,10.25,0.0,1.25,3.25,17.25,2020,12,32.0
1000011,202101,0.0,1.85,0.0,12.98,3.2,11.98,2021,1,30.0
1000011,202102,0.0,0.03,0.0,1.31,7.83,2.83,2021,2,12.0
